{
  "pageSize": 20,
  "result": [
    {
      "provinceId": "11",
      "amount": 0,
      "telecomId": "0",
      "numberStatus": "0",
      "numberSubLvl": "7",
      "numberLvl": "0",
      "numberPattern": "0",
      "svcNumber": "17090330060",
      "regionId": "110"
    },
    {
      "provinceId": "11",
      "amount": 0,
      "telecomId": "0",
      "numberStatus": "0",
      "numberSubLvl": "7",
      "numberLvl": "0",
      "numberPattern": "0",
      "svcNumber": "17090330087",
      "regionId": "110"
    },
    {
      "provinceId": "11",
      "amount": 0,
      "telecomId": "0",
      "numberStatus": "0",
      "numberSubLvl": "7",
      "numberLvl": "0",
      "numberPattern": "0",
      "svcNumber": "17090330094",
      "regionId": "110"
    },
    {
      "provinceId": "11",
      "amount": 0,
      "telecomId": "0",
      "numberStatus": "0",
      "numberSubLvl": "7",
      "numberLvl": "0",
      "numberPattern": "0",
      "svcNumber": "17090330102",
      "regionId": "110"
    },
    {
      "provinceId": "11",
      "amount": 0,
      "telecomId": "0",
      "numberStatus": "0",
      "numberSubLvl": "7",
      "numberLvl": "0",
      "numberPattern": "0",
      "svcNumber": "17090330106",
      "regionId": "110"
    },
    {
      "provinceId": "11",
      "amount": 0,
      "telecomId": "0",
      "numberStatus": "0",
      "numberSubLvl": "7",
      "numberLvl": "0",
      "numberPattern": "0",
      "svcNumber": "17090330113",
      "regionId": "110"
    },
    {
      "provinceId": "11",
      "amount": 0,
      "telecomId": "0",
      "numberStatus": "0",
      "numberSubLvl": "7",
      "numberLvl": "0",
      "numberPattern": "0",
      "svcNumber": "17090330119",
      "regionId": "110"
    },
    {
      "provinceId": "11",
      "amount": 0,
      "telecomId": "0",
      "numberStatus": "0",
      "numberSubLvl": "7",
      "numberLvl": "0",
      "numberPattern": "0",
      "svcNumber": "17090330126",
      "regionId": "110"
    },
    {
      "provinceId": "11",
      "amount": 0,
      "telecomId": "0",
      "numberStatus": "0",
      "numberSubLvl": "7",
      "numberLvl": "0",
      "numberPattern": "0",
      "svcNumber": "17090330129",
      "regionId": "110"
    },
    {
      "provinceId": "11",
      "amount": 0,
      "telecomId": "0",
      "numberStatus": "0",
      "numberSubLvl": "7",
      "numberLvl": "0",
      "numberPattern": "0",
      "svcNumber": "17090330131",
      "regionId": "110"
    },
    {
      "provinceId": "11",
      "amount": 0,
      "telecomId": "0",
      "numberStatus": "0",
      "numberSubLvl": "7",
      "numberLvl": "0",
      "numberPattern": "0",
      "svcNumber": "17090330135",
      "regionId": "110"
    },
    {
      "provinceId": "11",
      "amount": 0,
      "telecomId": "0",
      "numberStatus": "0",
      "numberSubLvl": "7",
      "numberLvl": "0",
      "numberPattern": "0",
      "svcNumber": "17090330138",
      "regionId": "110"
    },
    {
      "provinceId": "11",
      "amount": 0,
      "telecomId": "0",
      "numberStatus": "0",
      "numberSubLvl": "7",
      "numberLvl": "0",
      "numberPattern": "0",
      "svcNumber": "17090330139",
      "regionId": "110"
    },
    {
      "provinceId": "11",
      "amount": 0,
      "telecomId": "0",
      "numberStatus": "0",
      "numberSubLvl": "7",
      "numberLvl": "0",
      "numberPattern": "0",
      "svcNumber": "17090330140",
      "regionId": "110"
    },
    {
      "provinceId": "11",
      "amount": 0,
      "telecomId": "0",
      "numberStatus": "0",
      "numberSubLvl": "7",
      "numberLvl": "0",
      "numberPattern": "0",
      "svcNumber": "17090330141",
      "regionId": "110"
    },
    {
      "provinceId": "11",
      "amount": 0,
      "telecomId": "0",
      "numberStatus": "0",
      "numberSubLvl": "7",
      "numberLvl": "0",
      "numberPattern": "0",
      "svcNumber": "17090330142",
      "regionId": "110"
    },
    {
      "provinceId": "11",
      "amount": 0,
      "telecomId": "0",
      "numberStatus": "0",
      "numberSubLvl": "7",
      "numberLvl": "0",
      "numberPattern": "0",
      "svcNumber": "17090330143",
      "regionId": "110"
    },
    {
      "provinceId": "11",
      "amount": 0,
      "telecomId": "0",
      "numberStatus": "0",
      "numberSubLvl": "7",
      "numberLvl": "0",
      "numberPattern": "0",
      "svcNumber": "17090330145",
      "regionId": "110"
    },
    {
      "provinceId": "11",
      "amount": 0,
      "telecomId": "0",
      "numberStatus": "0",
      "numberSubLvl": "7",
      "numberLvl": "0",
      "numberPattern": "0",
      "svcNumber": "17090330147",
      "regionId": "110"
    },
    {
      "provinceId": "11",
      "amount": 0,
      "telecomId": "0",
      "numberStatus": "0",
      "numberSubLvl": "7",
      "numberLvl": "0",
      "numberPattern": "0",
      "svcNumber": "17090330148",
      "regionId": "110"
    }
  ],
  "pageCount": 1556,
  "endRowIndex": 20,
  "count": 31111,
  "startRowIndex": 1,
  "pageNo": 1
}
